^C:\USERS\HAUDREN\DESKTOP\DEVELOPMENT OTHER\NBUOPENSDL\NBUOPENSDL\DEBUG\CAMERA.OBJ|C:\USERS\HAUDREN\DESKTOP\DEVELOPMENT OTHER\NBUOPENSDL\NBUOPENSDL\DEBUG\DISPLAY.OBJ|C:\USERS\HAUDREN\DESKTOP\DEVELOPMENT OTHER\NBUOPENSDL\NBUOPENSDL\DEBUG\MAIN.OBJ|C:\USERS\HAUDREN\DESKTOP\DEVELOPMENT OTHER\NBUOPENSDL\NBUOPENSDL\DEBUG\MESH.OBJ|C:\USERS\HAUDREN\DESKTOP\DEVELOPMENT OTHER\NBUOPENSDL\NBUOPENSDL\DEBUG\OBJ_LOADER.OBJ|C:\USERS\HAUDREN\DESKTOP\DEVELOPMENT OTHER\NBUOPENSDL\NBUOPENSDL\DEBUG\SHADER.OBJ|C:\USERS\HAUDREN\DESKTOP\DEVELOPMENT OTHER\NBUOPENSDL\NBUOPENSDL\DEBUG\STB_IMAGE.OBJ|C:\USERS\HAUDREN\DESKTOP\DEVELOPMENT OTHER\NBUOPENSDL\NBUOPENSDL\DEBUG\TEXTURE.OBJ|C:\USERS\HAUDREN\DESKTOP\DEVELOPMENT OTHER\NBUOPENSDL\NBUOPENSDL\DEBUG\TRANSFORM.OBJ
C:\USERS\HAUDREN\DESKTOP\DEVELOPMENT OTHER\NBUOPENSDL\DEBUG\NBUOPENSDL.EXE
C:\USERS\HAUDREN\DESKTOP\DEVELOPMENT OTHER\NBUOPENSDL\DEBUG\NBUOPENSDL.ILK
C:\USERS\HAUDREN\DESKTOP\DEVELOPMENT OTHER\NBUOPENSDL\DEBUG\NBUOPENSDL.PDB
